…
``` r
devtools::install_github("chainsawriot/nucommit")
```

Example
-------

Some tweets collected by search\_tweets("\#rstats")

``` r
library(nucommit)
library(tibble)
data(rt)
rt
#> # A tibble: 3,170 x 90
#>    user_id status_id created_at          screen_name text  source
#>    <chr>   <chr>     <dttm>              <chr>       <chr> <chr> 
#>  1 129303… 12015125… 2019-12-02 14:44:43 MDubins     @Mar… Twitt…
#>  2 828660… 12015124… 2019-12-02 14:44:35 chris_tt_c… "Nee… Twitt…
#>  3 828660… 12003763… 2019-11-29 11:29:51 chris_tt_c… "Que… Twitt…
#>  4 739773… 12015121… 2019-12-02 14:43:13 ikashnitsky @maa… Twitt…
#>  5 739773… 11983562… 2019-11-23 21:42:44 ikashnitsky "#30… Twitt…
#>  6 739773… 11991158… 2019-11-26 00:01:00 ikashnitsky "@dm… Twitt…
#>  7 739773… 11993309… 2019-11-26 14:15:47 ikashnitsky Soun… Twitt…
#>  8 739773… 11996318… 2019-11-27 10:11:40 ikashnitsky "@rm… Twitt…
#>  9 739773… 11996342… 2019-11-27 10:21:17 ikashnitsky "@rm… Twitt…
#> 10 739773… 12007874… 2019-11-30 14:43:26 ikashnitsky @eol… Twitt…
#> # … with 3,160 more rows, and 84 more variables: display_text_width <dbl>,
#> #   reply_to_status_id <chr>, reply_to_user_id <chr>,
#> #   reply_to_screen_name <chr>, is_quote <lgl>, is_retweet <lgl>,
#> #   favorite_count <int>, retweet_count <int>, quote_count <int>,
#> #   reply_count <int>, hashtags <list>, symbols <list>, urls_url <list>,
#> #   urls_t.co <list>, urls_expanded_url <list>, media_url <list>,
#> #   media_t.co <list>, media_expanded_url <list>, media_type <list>,
#> #   ext_media_url <list>, ext_media_t.co <list>, ext_media_expanded_url <list>,
#> #   ext_media_type <chr>, mentions_user_id <list>, mentions_screen_name <list>,
…
